<?xml version="1.0" encoding="utf-8"?>
<!-- Generator: Adobe Illustrator 25.3.0, SVG Export Plug-In . SVG Version: 6.00 Build 0)  -->
<svg version="1.1" id="Layer_1" xmlns="http://www.w3.org/2000/svg" xmlns:xlink="http://www.w3.org/1999/xlink" x="0px" y="0px"
	 viewBox="0 0 84.4 80" style="enable-background:new 0 0 84.4 80;" xml:space="preserve">
<style type="text/css">
	.st0{fill:#E0DFDF;}
	.st1{fill:#EFEFEF;}
	.st2{fill:#FFC600;}
	.st3{stroke:#000000;stroke-width:0.9;}
</style>
<g id="Group_29170" transform="translate(-452 -820.39)">
	<g id="Group_29097" transform="translate(-55 -240)">
		<g id="Group_29092">
			<g id="Group_28351" transform="translate(-342 10)">
				<rect id="Rectangle_5919" x="850.4" y="1098.3" class="st0" width="8.4" height="30.9"/>
				<path id="Path_3822" d="M926.9,1092.6c-1.6,0-3.1,0.6-4.3,1.7l-15.2,14.1c-0.8,0.7-1.8,1.1-2.9,1.1h-21.4
					c-1.6,0-2.8-1.3-2.8-2.8s1.3-2.8,2.8-2.8h14.8c3.1,0,5.6-2.5,5.6-5.6c0-3.1-2.5-5.6-5.6-5.6h-23c-3.4,0-6.8,1-9.7,2.8l-5,3.1
					v-1.7H849v33.8h11.3v-2.8h29.7c0.9,0,1.9-0.1,2.8-0.2l11.5-1.8c3.8-0.6,7.4-2.4,10.1-5.1l17.1-17.1c1.2-1.2,1.9-2.8,1.9-4.5
					C933.4,1095.5,930.5,1092.6,926.9,1092.6L926.9,1092.6z M857.4,1127.8h-5.6v-28.1h5.6V1127.8z M929.5,1101.5l-17.1,17.1
					c-2.3,2.3-5.3,3.9-8.6,4.4l-11.5,1.8c-0.8,0.1-1.6,0.2-2.4,0.2h-29.7v-23.1l6.5-4.1c2.5-1.5,5.3-2.4,8.2-2.4h22.9
					c1.6,0,2.8,1.3,2.8,2.8s-1.3,2.8-2.8,2.8h-14.8c-3.1,0-5.6,2.5-5.6,5.6c0,3.1,2.5,5.6,5.6,5.6c0,0,0,0,0,0h21.4
					c1.8,0,3.5-0.7,4.8-1.9l15.2-14.1c0.7-0.6,1.6-1,2.5-0.9c2,0,3.6,1.6,3.6,3.6C930.6,1100,930.2,1100.9,929.5,1101.5
					L929.5,1101.5z"/>
			</g>
			<g id="Group_29080" transform="translate(244.859 540.617)">
				<rect id="Rectangle_5885" x="315.5" y="521.2" class="st1" width="9" height="3.1"/>
				<g id="Group_26270" transform="translate(308.641 520.224)">
					<path id="Path_3730" class="st2" d="M-3.3,10.3v5l16.8,0.8L-3.3,10.3z"/>
					<path id="Path_3731" class="st2" d="M27,10.3v7.6L1.3,19.1L27,10.3z"/>
					<rect id="Rectangle_5884" x="-3.3" y="14.8" class="st2" width="30.3" height="10.6"/>
					<g id="Group_26269" transform="translate(0 0)">
						<g id="Group_26266" transform="translate(0.039 4.45)">
							<path id="Path_3727" class="st3" d="M24.6,22.2H-0.9c-1.8,0-3.3-1.5-3.4-3.3c0,0,0,0,0-0.1V2.7c0-1.8,1.5-3.3,3.3-3.4
								c0,0,0,0,0.1,0h25.6c1.8,0,3.3,1.5,3.4,3.3c0,0,0,0,0,0.1v16.2C28,20.7,26.5,22.2,24.6,22.2C24.7,22.2,24.7,22.2,24.6,22.2z
								 M-0.9,0.7c-1.1,0-2,0.9-2,2v16.2c0,1.1,0.9,2,2,2h25.6c1.1,0,2-0.9,2-2V2.7c0-1.1-0.9-2-2-2L-0.9,0.7z"/>
						</g>
						<g id="Group_26267" transform="translate(11.907 0)">
							<path id="Path_3728" class="st3" d="M4.7,5.2C4.3,5.2,4,4.9,4,4.6c0,0,0-0.1,0-0.1V1.8c0-0.4-0.2-0.7-0.6-0.7
								c0,0-0.1,0-0.1,0h-6.7c-0.4,0-0.7,0.2-0.7,0.6c0,0,0,0.1,0,0.1v2.7c0,0.4-0.3,0.7-0.6,0.7c-0.4,0-0.7-0.3-0.7-0.6
								c0,0,0,0,0,0V1.8c0-1.1,0.9-2,2-2h6.7c1.1,0,2,0.9,2,2v2.7C5.4,4.8,5.1,5.1,4.7,5.2C4.7,5.2,4.7,5.2,4.7,5.2z"/>
						</g>
						<g id="Group_26268" transform="translate(0 10.328)">
							<path id="Path_3729" class="st3" d="M11.9,5.6h-0.3L-3.9,0.2C-4.2,0-4.4-0.4-4.3-0.7c0.2-0.3,0.6-0.5,0.9-0.4l15.2,5.4
								l15.2-5.4c0.3-0.1,0.7,0.1,0.8,0.4S27.8,0,27.5,0.1L12,5.5C12,5.6,12,5.6,11.9,5.6L11.9,5.6z"/>
						</g>
					</g>
				</g>
			</g>
		</g>
	</g>
</g>
</svg>
