<svg xmlns="http://www.w3.org/2000/svg" width="31.272" height="34.845" viewBox="0 0 31.272 34.845">
  <g id="Group_26673" data-name="Group 26673" transform="translate(0.2 -1.923)">
    <g id="Group_26672" data-name="Group 26672" transform="translate(0 0)">
      <g id="Group_26671" data-name="Group 26671" transform="matrix(-0.225, 0.974, -0.974, -0.225, 32.589, 4.58)">
        <g id="Group_26670" data-name="Group 26670" transform="translate(0 0)">
          <g id="Group_26669" data-name="Group 26669" transform="translate(0 0)">
            <path id="Path_4173" data-name="Path 4173" d="M4.627,2.242V2.223A2.313,2.313,0,0,0,0,2.228v.019a2.314,2.314,0,1,0,4.626.172C4.63,2.361,4.63,2.3,4.627,2.242Z" transform="translate(17.057 8.392)" fill="#c9c9c9"/>
            <path id="Path_4174" data-name="Path 4174" d="M3.792.869,3.782.854A2.1,2.1,0,0,0,.309,3.2l.01.015a2.1,2.1,0,1,0,3.568-2.2C3.859.963,3.825.913,3.792.869Z" transform="translate(15.76 3.49)" fill="#c9c9c9"/>
            <path id="Path_4175" data-name="Path 4175" d="M2.529.117,2.513.111A1.878,1.878,0,0,0,1.1,3.586l.016.008A1.879,1.879,0,0,0,2.673.175C2.627.154,2.576.134,2.529.117Z" transform="translate(11.852 0.303)" fill="#c9c9c9"/>
            <path id="Path_4176" data-name="Path 4176" d="M1.277.049l-.018,0A1.66,1.66,0,0,0,1.933,3.3l.018,0A1.66,1.66,0,1,0,1.4.023C1.363.03,1.318.04,1.277.049Z" transform="translate(6.743 0)" fill="#c9c9c9"/>
            <path id="Path_4177" data-name="Path 4177" d="M.382.478.37.491A1.442,1.442,0,0,0,2.432,2.5l.013-.012A1.443,1.443,0,0,0,.464.393C.436.42.407.45.382.478Z" transform="translate(2.264 2.752)" fill="#c9c9c9"/>
            <path id="Path_4178" data-name="Path 4178" d="M.015,1.054l0,.018a1.224,1.224,0,0,0,2.406.439l0-.017A1.225,1.225,0,1,0,.033.956C.025.988.019,1.022.015,1.054Z" transform="translate(0 7.698)" fill="#c9c9c9"/>
            <path id="Path_4179" data-name="Path 4179" d="M.1,1.446l.008.016a1.006,1.006,0,0,0,1.843-.8L1.946.643a1.007,1.007,0,0,0-1.877.728C.078,1.4.089,1.422.1,1.446Z" transform="translate(0.797 13.234)" fill="#c9c9c9"/>
            <path id="Path_4180" data-name="Path 4180" d="M.391,1.47l.015.009A.788.788,0,0,0,1.255.153L1.241.143a.788.788,0,0,0-.9,1.291Z" transform="translate(4.462 17.535)" fill="#c9c9c9"/>
            <path id="Path_4181" data-name="Path 4181" d="M.605,1.14H.624A.57.57,0,0,0,.6,0H.58A.571.571,0,0,0,.561,1.141Z" transform="translate(9.822 19.217)" fill="#c9c9c9"/>
            <path id="Path_4182" data-name="Path 4182" d="M.568.641.582.631A.352.352,0,0,0,.176.056L.162.066A.353.353,0,1,0,.545.658Z" transform="translate(15.122 17.769)" fill="#c9c9c9"/>
            <path id="Path_4183" data-name="Path 4183" d="M.263.194.268.177a.134.134,0,0,0-.25-.1L.011.1A.134.134,0,1,0,.258.2.046.046,0,0,0,.263.194Z" transform="translate(18.631 13.765)" fill="#c9c9c9"/>
          </g>
        </g>
      </g>
      <g id="Group_26668" data-name="Group 26668" transform="translate(0 7.641)">
        <path id="Path_4169" data-name="Path 4169" d="M31,23.983a2.645,2.645,0,0,1,2.3-2.6l.552-.069a63.519,63.519,0,0,1,13.192,0l.552.069a2.649,2.649,0,0,1,2.3,2.6c0,4.448-1.372,6.528-4.6,8.86-1.518,1.13-1.928,1.642-1.928,2.6s.41,1.467,1.911,2.585c3.245,2.345,4.618,4.415,4.618,8.824a2.645,2.645,0,0,1-2.3,2.6l-.057.007a68.3,68.3,0,0,1-14.182,0l-.057-.007a2.649,2.649,0,0,1-2.3-2.6c0-4.41,1.373-6.48,4.618-8.824l.084-.067c1.469-1.147,1.827-1.617,1.827-2.567s-.41-1.468-1.928-2.6C32.373,30.462,31,28.392,31,23.983Z" transform="translate(-31 -20.972)" fill="#c9c9c9" stroke="#c9c9c9" stroke-width="0.4" fill-rule="evenodd"/>
        <path id="Path_4170" data-name="Path 4170" d="M40.529,36.9c0,1.946-1.288,2.87-2.529,3.843-1.885,1.362-4,2.967-4,7.615a1.158,1.158,0,0,0,.991,1.118l.057.007a66.872,66.872,0,0,0,13.812,0l.057-.007a1.154,1.154,0,0,0,.991-1.118c0-4.648-2.115-6.253-4-7.615-1.241-.924-2.529-1.9-2.529-3.794s1.288-2.87,2.529-3.794c1.885-1.362,4-2.967,4-7.664a1.158,1.158,0,0,0-.991-1.118l-.552-.069a62.1,62.1,0,0,0-12.822,0l-.552.069A1.154,1.154,0,0,0,34,25.491c0,4.648,2.115,6.253,4,7.615C39.241,34.031,40.529,35,40.529,36.9Z" transform="translate(-32.509 -22.481)" fill="#fff" fill-rule="evenodd"/>
        <path id="Path_4171" data-name="Path 4171" d="M49.6,33.536a.394.394,0,0,1,.325.542,2.672,2.672,0,0,1-.131.33A7.062,7.062,0,0,1,47,37.239c-2.117,1.576-2.94,2.6-2.874,4.576-.009.214,0,.005,0,.005a.493.493,0,0,1-.5.492.5.5,0,0,1-.5-.492s.009.208,0-.005c.066-1.971-.758-3-2.875-4.576a7.065,7.065,0,0,1-2.794-2.831,2.713,2.713,0,0,1-.131-.33.4.4,0,0,1,.325-.542l1.4-.214a36.056,36.056,0,0,1,9.152,0Z" transform="translate(-34.168 -27.036)" fill="#231f20" fill-rule="evenodd"/>
        <path id="Path_4172" data-name="Path 4172" d="M49.6,33.536a.394.394,0,0,1,.325.542,2.672,2.672,0,0,1-.131.33A7.062,7.062,0,0,1,47,37.239c-2.117,1.576-2.94,2.6-2.874,4.576-.009.214,0,.005,0,.005a.493.493,0,0,1-.5.492.5.5,0,0,1-.5-.492s.009.208,0-.005c.066-1.971-.758-3-2.875-4.576a7.065,7.065,0,0,1-2.794-2.831,2.713,2.713,0,0,1-.131-.33.4.4,0,0,1,.325-.542l1.4-.214a36.056,36.056,0,0,1,9.152,0Z" transform="translate(-34.168 -27.036)" fill="#ffc600" fill-rule="evenodd"/>
      </g>
      <path id="Polygon_1" data-name="Polygon 1" d="M2.953,0,5.906,5.906H0Z" transform="translate(5.906 29.078)" fill="#ffc600"/>
    </g>
  </g>
</svg>
