<?xml version="1.0" encoding="utf-8"?>
<!-- Generator: Adobe Illustrator 25.3.0, SVG Export Plug-In . SVG Version: 6.00 Build 0)  -->
<svg version="1.1" id="Layer_1" xmlns="http://www.w3.org/2000/svg" xmlns:xlink="http://www.w3.org/1999/xlink" x="0px" y="0px"
	 viewBox="0 0 95.8 80" style="enable-background:new 0 0 95.8 80;" xml:space="preserve">
<style type="text/css">
	.st0{fill:#EFEFEF;}
	.st1{fill:#FFC600;}
</style>
<g id="Group_29168" transform="translate(-1259.5 -854.957)">
	<g id="Group_26271" transform="translate(950.859 334.733)">
		<rect id="Rectangle_5885" x="341.9" y="523.8" class="st0" width="26.9" height="9.3"/>
		<g id="Group_26270" transform="translate(308.641 520.224)">
			<path id="Path_3730" class="st1" d="M3,31.4v14.8L53,48.5L3,31.4z"/>
			<path id="Path_3731" class="st1" d="M92.9,31.4v22.5l-76.3,3.6L92.9,31.4z"/>
			<rect id="Rectangle_5884" x="3" y="44.8" class="st1" width="90" height="13.5"/>
			<g id="Group_26269" transform="translate(0 0)">
				<g id="Group_26266" transform="translate(0.091 10.267)">
					<path id="Path_3727" d="M86,69.7H10c-5.5,0.1-9.9-4.3-10-9.8c0-0.1,0-0.1,0-0.2v-48c-0.1-5.5,4.3-9.9,9.8-10c0.1,0,0.1,0,0.2,0
						h76c5.5-0.1,9.9,4.3,10,9.8c0,0.1,0,0.1,0,0.2v48c0.1,5.5-4.3,9.9-9.8,10C86.1,69.7,86.1,69.7,86,69.7z M10,5.7
						c-3.3,0.1-5.9,2.7-6,6v48c0.1,3.3,2.7,5.9,6,6h76c3.3-0.1,5.9-2.7,6-6v-48c-0.1-3.3-2.7-5.9-6-6H10z"/>
				</g>
				<g id="Group_26267" transform="translate(27.47 0)">
					<path id="Path_3728" d="M34.6,16c-1,0.1-1.9-0.7-2-1.8c0-0.1,0-0.2,0-0.2V6c0.1-1-0.7-1.9-1.8-2c-0.1,0-0.2,0-0.2,0h-20
						c-1-0.1-1.9,0.7-2,1.8c0,0.1,0,0.2,0,0.2v8c0,1.1-0.9,2-2,2c-1.1,0-2-0.9-2-2c0,0,0,0,0,0V6c0.1-3.3,2.7-5.9,6-6h20
						c3.3,0.1,5.9,2.7,6,6v8c0.1,1-0.7,1.9-1.8,2C34.8,16,34.7,16,34.6,16z"/>
				</g>
				<g id="Group_26268" transform="translate(0 23.828)">
					<path id="Path_3729" d="M48.1,24.2h-0.8l-46-16c-1-0.5-1.5-1.7-1.2-2.8c0.5-1,1.7-1.5,2.8-1.2l45.2,16l45.2-16
						c1-0.3,2.1,0.2,2.4,1.2c0.3,1-0.2,2.1-1.2,2.4l0,0l-46,16C48.5,24.2,48.5,24.2,48.1,24.2L48.1,24.2z"/>
				</g>
			</g>
		</g>
	</g>
</g>
</svg>
