<?xml version="1.0" encoding="utf-8"?>
<!-- Generator: Adobe Illustrator 25.3.0, SVG Export Plug-In . SVG Version: 6.00 Build 0)  -->
<svg version="1.1" id="Layer_1" xmlns="http://www.w3.org/2000/svg" xmlns:xlink="http://www.w3.org/1999/xlink" x="0px" y="0px"
	 viewBox="0 0 88.7 80" style="enable-background:new 0 0 88.7 80;" xml:space="preserve">
<style type="text/css">
	.st0{stroke:#000000;}
	.st1{fill:#FFC600;}
	.st2{fill:#E0E0E0;}
	.st3{fill:#FFFFFF;}
</style>
<g id="Group_29162" transform="translate(-760.149 -596.499)">
	<g id="Group_27429" transform="translate(554.531 326.432)">
		<g id="Group_26777" transform="translate(206.118 270.568)">
			<g id="Group_25447">
				<path id="Path_3289" class="st0" d="M25,1.7l43.5,0v-2L1.4-0.5v80h67.2L68.5-0.4l-2.1,0c0,25.9,0,51.8,0.1,77.7H3.6V1.7h6.2"/>
				<path id="Path_3290" class="st1" d="M9.8,1.7v21.8c2.5-2.5,5.1-5,7.6-7.6l0,0c2.5,2.5,5.1,5,7.6,7.6V1.7"/>
				<path id="Path_3292" class="st2" d="M9.8,35.3v2.2h50.4v-2.2H9.8z"/>
				<path id="Path_3293" class="st2" d="M9.8,41.6v2.2h50.4v-2.2H9.8z"/>
				<path id="Path_3294" class="st2" d="M9.8,47.8V50h50.4v-2.2H9.8z"/>
				<path id="Path_3295" class="st2" d="M9.8,54.1v2.2h50.4v-2.2H9.8z"/>
				<path id="Path_3296" class="st2" d="M9.8,61.5v2.2H35v-2.2H9.8z"/>
			</g>
		</g>
		<g id="Group_26862" transform="translate(265.494 301.878)">
			<path id="Path_3305" class="st1" d="M9.4-6C-0.8-6-9,2.2-9,12.4c0,0,0,0,0,0l0,0c0,10.1,8.2,18.3,18.3,18.3
				c10.1,0,18.3-8.2,18.3-18.3C27.7,2.2,19.5-6,9.4-6z"/>
			<path id="Icon_awesome-percent" class="st3" d="M6.1,10.4c2.1,0,3.9-1.7,3.9-3.9S8.3,2.7,6.1,2.7S2.3,4.4,2.3,6.6
				C2.3,8.7,4,10.4,6.1,10.4C6.1,10.4,6.1,10.4,6.1,10.4z M6.1,4.9c0.9,0,1.7,0.7,1.7,1.7c0,0.9-0.7,1.7-1.7,1.7
				c-0.9,0-1.7-0.7-1.7-1.7C4.5,5.6,5.2,4.9,6.1,4.9L6.1,4.9L6.1,4.9z M13.9,12.6c-2.1,0-3.9,1.7-3.9,3.9c0,2.1,1.7,3.9,3.9,3.9
				s3.9-1.7,3.9-3.9l0,0C17.7,14.4,16,12.6,13.9,12.6C13.9,12.6,13.9,12.6,13.9,12.6L13.9,12.6z M13.9,18.1c-0.9,0-1.7-0.7-1.7-1.7
				c0-0.9,0.7-1.7,1.7-1.7c0.9,0,1.7,0.7,1.7,1.7C15.5,17.4,14.8,18.1,13.9,18.1L13.9,18.1z M15.8,2.7l1.1,0c0.5,0,0.8,0.4,0.8,0.8
				c0,0.2-0.1,0.3-0.2,0.5L5,20c-0.2,0.2-0.4,0.4-0.7,0.4H3.1c-0.5,0-0.8-0.4-0.8-0.8c0-0.2,0.1-0.3,0.2-0.5l12.7-16
				C15.3,2.8,15.5,2.7,15.8,2.7z"/>
		</g>
	</g>
</g>
</svg>
