<?xml version="1.0" encoding="utf-8"?>
<!-- Generator: Adobe Illustrator 25.3.0, SVG Export Plug-In . SVG Version: 6.00 Build 0)  -->
<svg version="1.1" id="Layer_1" xmlns="http://www.w3.org/2000/svg" xmlns:xlink="http://www.w3.org/1999/xlink" x="0px" y="0px"
	 viewBox="0 0 48.9 80" style="enable-background:new 0 0 48.9 80;" xml:space="preserve">
<style type="text/css">
	.st0{fill:#E0E0E0;}
	.st1{fill:#FFC600;}
	.st2{stroke:#000000;stroke-width:0.3;}
</style>
<g id="Group_29167" transform="translate(-829.1 -488.89)">
	<g id="Group_29064" transform="translate(406.252 -1430.857)">
		<g id="Group_29061" transform="translate(16.73)">
			<g id="Group_29049" transform="translate(273 1195.438)">
				<rect id="Rectangle_5889" x="134.4" y="776.7" class="st0" width="7" height="27.6"/>
				<rect id="Rectangle_5890" x="165.6" y="760" class="st1" width="5.8" height="14"/>
				<path id="Path_3754" class="st1" d="M173.4,745.2c1.1,1.5,1.5,3.3,1.1,5.1c-0.4,1.8-2.6,5.3-7.4,4.3c-4.7-1.1-5.4-6.2-3.7-9.1
					c1.2-2.2,5.1-3.4,5.1-3.4l-1.3,5.2l5,1.7L173.4,745.2z"/>
				<path id="Path_3753" class="st2" d="M181,778.7c-0.1-2.3-1.9-4-4.2-4H175v-18.5c4.2-3.5,4.8-9.8,1.3-14
					c-0.2-0.3-0.5-0.6-0.8-0.8c-0.4-0.4-0.9-0.3-1.3,0c-0.1,0.1-0.2,0.2-0.2,0.3l-1.8,5.4l-3.9-1.3l2-5.9c0.2-0.5-0.1-1-0.6-1.2
					c-0.1,0-0.1,0-0.2,0c-0.3,0-0.6,0-0.9,0c-5.5,0-9.9,4.5-9.9,9.9c0,3,1.3,5.8,3.7,7.7v18.4h-0.7l0.2-8.9c0,0,0,0,0,0
					c-0.1-3.2-2.4-5.8-5.6-6.2l-1.7-0.3c-0.5-0.1-1,0.3-1,0.8c0,0,0,0,0,0.1l-0.7,9.5c-0.1,1.1-0.5,2.2-1.1,3.2
					c-0.4,0.6-0.9,1.1-1.5,1.6c-1.4,0.9-2.7,2.1-3.8,3.4v-2.1c0-0.5-0.4-0.9-1-1h-10.7c-0.5,0-0.9,0.5-0.9,1v27.2
					c0,0.5,0.3,0.9,0.8,0.9h0.1h10.7c0.5,0,0.9-0.4,1-0.9v-1.6c4.8,0,11.8,0,17.8,0c3.7,0,6.9,0,9.2,0c2.3,0,4.1-1.7,4.2-4v-0.1
					c0.1-0.9-0.1-1.8-0.5-2.7c1.3-0.7,2.2-2,2.2-3.5c0-1-0.4-2-1.1-2.7c1.3-0.7,2.1-2,2.1-3.5v-0.1c0-1-0.4-2-1.2-2.8
					C180.3,781.4,181,780.1,181,778.7z M160.5,748.6c0-4.3,3.4-7.9,7.7-8.1l-1.9,5.6c-0.2,0.5,0.1,1,0.6,1.2c0,0,0,0,0,0l0,0
					l5.7,1.9c0.5,0.2,1-0.1,1.2-0.6c0,0,0,0,0,0l1.6-4.7c2.6,3.7,1.8,8.8-1.9,11.4c-3.7,2.6-8.8,1.8-11.4-1.9
					C161,751.9,160.5,750.3,160.5,748.6C160.5,748.6,160.5,748.6,160.5,748.6L160.5,748.6z M164.2,757.4c1.4,0.7,2.9,1.1,4.5,1.1
					c1.6,0,3.1-0.4,4.5-1.1v17.2l-9,0L164.2,757.4z M144.5,801.9h-8.9v-25.4h8.9L144.5,801.9z M176.8,780.8h-0.7c0,0-0.1,0-0.1,0v0
					c0,0,0,0-0.1,0h-4.2c-0.5,0-0.9,0.4-0.9,0.9c0,0.5,0.4,0.9,0.9,0.9h4.4c1.2,0,2.2,1,2.2,2.2v0.1c0,1.2-1.1,2.2-2.3,2.2
					c0,0,0,0,0,0h-3.8c-0.5,0-0.9,0.4-0.9,0.9c0,0.5,0.4,0.9,0.9,0.9h2.7c1.2-0.1,2.2,0.7,2.4,1.9c0.1,1.2-0.7,2.2-1.9,2.4
					c-0.1,0-0.3,0-0.4,0h-2.5c-0.5,0-0.9,0.4-0.9,0.9c0,0.5,0.4,0.9,0.9,0.9h2c0.7,0,1.2,0.2,1.2,2.2v0.1c0,1.2-1.1,2.2-2.3,2.2
					c0,0,0,0,0,0c-5.9,0-19.2,0-27,0V781c0.7-1.7,2.5-3.6,4.8-5.2c0.8-0.5,1.5-1.2,2-2c0.8-1.2,1.4-2.6,1.5-4.1l0.6-8.5l0.8,0.1l0,0
					c2.2,0.3,3.9,2.2,4,4.4l-0.3,9.8c0,0.5,0.4,0.9,0.9,0.9c0,0,0,0,0,0h0l16.1,0c1.2-0.1,2.3,0.7,2.4,1.9c0.1,1.2-0.7,2.3-1.9,2.4
					C177.1,780.8,177,780.8,176.8,780.8L176.8,780.8z"/>
			</g>
			<g id="Group_29050" transform="translate(-944 12)">
				<g id="Group_28348" transform="translate(1397.138 1901.672) rotate(30)">
					<path id="Rectangle_5920" d="M-5.4,10.1l0.1-0.1C-5,9.9-4.6,10-4.4,10.3l2.4,4.2c0.2,0.3,0.1,0.7-0.2,0.9l-0.1,0.1
						c-0.3,0.2-0.7,0.1-0.9-0.2l-2.4-4.2C-5.9,10.8-5.8,10.3-5.4,10.1z"/>
					<path id="Rectangle_6165" d="M-11.2,20.2l0-0.1c0-0.4,0.4-0.7,0.7-0.6l4.8,0.3c0.4,0,0.7,0.4,0.6,0.7l0,0.1
						c0,0.4-0.4,0.7-0.7,0.6l-4.8-0.3C-11,20.9-11.3,20.6-11.2,20.2z"/>
					<path id="Rectangle_6141" d="M7.6,10.1l-3,5.2c-0.2,0.3-0.6,0.4-0.9,0.2l0,0c-0.3-0.2-0.4-0.6-0.2-0.9l3-5.2
						C6.6,9.1,7,9,7.4,9.2l0,0C7.7,9.4,7.8,9.8,7.6,10.1z"/>
				</g>
			</g>
		</g>
	</g>
</g>
</svg>
