<?xml version="1.0" encoding="utf-8"?>
<!-- Generator: Adobe Illustrator 25.3.0, SVG Export Plug-In . SVG Version: 6.00 Build 0)  -->
<svg version="1.1" id="Layer_1" xmlns="http://www.w3.org/2000/svg" xmlns:xlink="http://www.w3.org/1999/xlink" x="0px" y="0px"
	 viewBox="0 0 124.8 80" style="enable-background:new 0 0 124.8 80;" xml:space="preserve">
<style type="text/css">
	.st0{stroke:#000000;stroke-width:0.7;stroke-linecap:round;}
	.st1{fill:#E0E0E0;}
	.st2{fill:#FFC600;stroke:#000000;stroke-width:2.5;}
	.st3{fill:#B7B7B7;}
</style>
<g id="Group_29158" transform="translate(-439.65 -240.765)">
	<g id="Group_29157" transform="translate(-528 -1204.295)">
		<g id="Group_29154" transform="translate(119 6.41)">
			<g id="Group_29153" transform="translate(849 1439)">
				<g id="Group_25463" transform="translate(0 0)">
					<g id="Group_25455" transform="translate(0 0)">
						<path id="Path_3300" class="st0" d="M1.6,3v76.7H106V3c0.1-1.8-1.3-3.3-3.1-3.3H4.7C2.9-0.3,1.6,1.2,1.6,3z M104.1,3v74.6H3.5
							V3c0-0.7,0.5-1.2,1.1-1.3h98.2C103.6,1.8,104.1,2.3,104.1,3z"/>
						<rect id="Rectangle_5743" x="16.4" y="66.9" class="st1" width="51.8" height="1.9"/>
						<rect id="Rectangle_5747" x="16.4" y="59" class="st1" width="51.8" height="1.9"/>
						<rect id="Rectangle_5748" x="16.4" y="51.2" class="st1" width="51.8" height="1.9"/>
					</g>
				</g>
				<path id="Path_3326" class="st2" d="M103.7,21.6c-9.8,0-17.8,8-17.8,17.8c0,0,0,0,0,0l0,0c0,9.8,8,17.8,17.8,17.8
					s17.8-8,17.8-17.8C121.5,29.5,113.5,21.6,103.7,21.6z"/>
			</g>
			<path id="Icon_ionic-ios-person" class="st3" d="M892.2,1478c-0.5-2.2-3.3-3.2-4.2-3.6c-1.2-0.3-2.3-0.5-3.5-0.7
				c-0.6-0.1-1.2-0.4-1.6-0.8c-0.3-0.3-0.1-3.3-0.1-3.3c0.3-0.5,0.6-1,0.8-1.5c0.2-0.8,0.4-1.7,0.6-2.6c0,0,0.6,0,0.8-1
				c0.3-0.7,0.4-1.5,0.5-2.3c0-0.8-0.5-0.8-0.5-0.8c0.3-1.1,0.5-2.3,0.5-3.5c0.1-2.8-2.1-5.5-6.1-5.5c-4,0-6.2,2.8-6.1,5.5
				c0,1.2,0.1,2.4,0.5,3.5c0,0-0.4,0-0.5,0.8c0.1,0.8,0.2,1.5,0.5,2.3c0.2,1,0.8,1,0.8,1c0.1,0.9,0.3,1.7,0.6,2.6
				c0.2,0.5,0.5,1,0.8,1.5c0,0,0.2,3-0.1,3.3c-0.5,0.4-1,0.6-1.6,0.8c-1.2,0.2-2.4,0.4-3.5,0.7c-1,0.3-3.8,1.4-4.2,3.6
				c-0.1,0.3,0.1,0.6,0.4,0.6c0,0,0.1,0,0.1,0h25c0.3,0,0.5-0.2,0.5-0.5C892.2,1478.1,892.2,1478,892.2,1478z"/>
			<g id="icon_action_check_circle_24px_" transform="translate(953.463 1475.88)">
				<g id="Group_216">
					<path id="_Color-2" d="M-4.1,7.1L-9,2.5L-10.6,4l6.5,6.2L9.8-3.1L8.2-4.7L-4.1,7.1z"/>
				</g>
			</g>
		</g>
	</g>
</g>
</svg>
