<?xml version="1.0" encoding="utf-8"?>
<!-- Generator: Adobe Illustrator 25.3.0, SVG Export Plug-In . SVG Version: 6.00 Build 0)  -->
<svg version="1.1" id="Layer_1" xmlns="http://www.w3.org/2000/svg" xmlns:xlink="http://www.w3.org/1999/xlink" x="0px" y="0px"
	 viewBox="0 0 82 80" style="enable-background:new 0 0 82 80;" xml:space="preserve">
<style type="text/css">
	.st0{fill:#FFC600;}
	.st1{fill:#FFFFFF;}
</style>
<g id="Group_29171" transform="translate(-778 -815)">
	<g id="Group_29096" transform="translate(-72 -240)">
		<g id="Group_29089">
			<g id="Group_29088">
				<path id="Icon_awesome-heart" class="st0" d="M899,1108.6c-2.1-1.8-5.3-1.6-7.1,0.5c0,0,0,0,0,0l-0.8,0.8l-0.8-0.8
					c-1.8-2.1-5-2.4-7.1-0.6c0,0,0,0,0,0c-2.4,2.2-2.5,5.9-0.4,8.3l7.4,8c0.4,0.5,1.2,0.5,1.6,0.1c0,0,0.1-0.1,0.1-0.1l7.4-8
					C901.5,1114.5,901.4,1110.8,899,1108.6z"/>
				<circle id="Ellipse_438" class="st0" cx="891" cy="1075" r="10.6"/>
				<g id="Group_29087" transform="translate(848 1053)">
					<path id="Path_4619" d="M43,27.3L43,27.3c3.1,0,5.5-2.5,5.5-5.5c0-3-2.5-5.4-5.5-5.4c-3,0-5.4,2.5-5.4,5.5
						C37.6,24.9,40,27.3,43,27.3z M41.1,20.1c0.5-0.5,1.2-0.8,1.9-0.8h0c1.5,0,2.7,1.2,2.7,2.7c0,1.5-1.2,2.7-2.7,2.7
						c-0.7,0-1.4-0.3-1.9-0.8C40,22.8,40,21.1,41.1,20.1z"/>
					<path id="Path_4620" d="M31.1,25.9l1.7,0c0.1,0.3,0.2,0.6,0.4,0.9L32,28c-0.5,0.5-0.5,1.4,0,1.9l3.4,3.3
						c0.3,0.2,0.6,0.4,0.9,0.4c0.4,0,0.7-0.1,0.9-0.4l1.2-1.2c0.3,0.1,0.6,0.2,0.9,0.4l0,1.7c0,0.7,0.6,1.3,1.3,1.3h0l4.8-0.1
						c0.7,0,1.3-0.6,1.3-1.3c0,0,0,0,0,0l0-1.7c0.3-0.1,0.6-0.2,0.9-0.4L49,33c0.3,0.2,0.6,0.4,0.9,0.4c0.4,0,0.7-0.1,0.9-0.4
						l3.3-3.4c0.5-0.5,0.5-1.4,0-1.9c0,0,0,0,0,0l-1.2-1.2c0.1-0.3,0.2-0.6,0.4-0.9l1.7,0c0.7,0,1.3-0.6,1.3-1.3c0,0,0,0,0,0
						l-0.1-4.8c0-0.7-0.6-1.3-1.3-1.3h0l-1.7,0c-0.1-0.3-0.2-0.6-0.4-0.9L54,16c0.5-0.5,0.5-1.4,0-1.9l-3.4-3.3
						c-0.3-0.3-0.6-0.4-0.9-0.4c-0.4,0-0.7,0.1-0.9,0.4l-1.2,1.2c-0.3-0.1-0.6-0.2-0.9-0.4l0-1.7c0-0.7-0.6-1.3-1.3-1.3h0l-4.8,0.1
						c-0.7,0-1.3,0.6-1.3,1.3c0,0,0,0,0,0l0,1.7c-0.3,0.1-0.6,0.2-0.9,0.4L37,11c-0.3-0.2-0.6-0.4-0.9-0.4c-0.4,0-0.7,0.1-0.9,0.4
						l-3.3,3.4c-0.5,0.5-0.5,1.4,0,1.9c0,0,0,0,0,0l1.2,1.2c-0.1,0.3-0.2,0.6-0.4,0.9l-1.7,0c-0.7,0-1.3,0.6-1.3,1.3c0,0,0,0,0,0
						l0.1,4.8C29.7,25.3,30.3,25.9,31.1,25.9C31.1,25.9,31.1,25.9,31.1,25.9z M33.7,21.1c0.6,0,1.1-0.4,1.3-1
						c0.2-0.7,0.5-1.5,0.9-2.1c0.3-0.5,0.2-1.2-0.2-1.6l-1-1l1.5-1.5l1,1c0.4,0.4,1.1,0.5,1.6,0.2c0.7-0.4,1.4-0.7,2.1-0.9
						c0.6-0.2,1-0.7,1-1.3l0-1.4l2.1,0l0,1.4c0,0.6,0.4,1.1,1,1.3c0.7,0.2,1.5,0.5,2.1,0.9c0.5,0.3,1.2,0.2,1.6-0.2l1-1l1.5,1.5
						l-1,1c-0.4,0.4-0.5,1.1-0.2,1.6c0.4,0.7,0.7,1.4,0.9,2.1c0.2,0.6,0.7,1,1.3,1h0l1.4,0l0,2.1l-1.4,0c-0.6,0-1.1,0.4-1.3,1
						c-0.2,0.7-0.5,1.5-0.9,2.1c-0.3,0.5-0.2,1.2,0.2,1.6l1,1l-1.5,1.5l-1-1c-0.4-0.4-1.1-0.5-1.6-0.2c-0.7,0.4-1.4,0.7-2.1,0.9
						c-0.6,0.2-1,0.7-1,1.3l0,1.4l-2.1,0l0-1.4c0-0.6-0.4-1.1-1-1.3c-0.7-0.2-1.5-0.5-2.1-0.9c-0.5-0.3-1.2-0.2-1.6,0.2l-1,1
						l-1.5-1.5l1-1c0.4-0.4,0.5-1.1,0.2-1.6c-0.4-0.7-0.7-1.4-0.9-2.1c-0.2-0.6-0.7-1-1.3-1h0l-1.4,0l0-2.1L33.7,21.1z"/>
					<path id="Path_4621" d="M50.1,52.8c-2.6-0.6-5.3,0.3-7.1,2.2c-1.8-1.9-4.5-2.7-7.1-2.2c-3,0.6-5.1,3.3-4.9,6.3
						c0,6.6,8.6,12.8,11.3,14.6c0.4,0.3,1,0.3,1.5,0C46.4,72,55,65.8,55,59.2C55.1,56.2,53.1,53.5,50.1,52.8z M43,71.1
						c-4.5-3.1-9.3-7.9-9.3-11.9c-0.1-1.8,1.1-3.4,2.8-3.7c0.3-0.1,0.7-0.1,1-0.1c1.8,0,3.5,1,4.3,2.6c0.4,0.7,1.2,0.9,1.9,0.5
						c0.2-0.1,0.4-0.3,0.5-0.5c1-2,3.2-3,5.3-2.5c1.8,0.3,3,2,2.8,3.7C52.3,63.2,47.5,68,43,71.1z"/>
					<path id="Path_4622" d="M43,2c-0.1,0-0.3,0-0.4,0c-0.1,0-0.1,0-0.2,0v0C20.2,2.4,2.6,20.6,3,42.6C3.3,64.5,21.2,82,43,82
						c0.1,0,0.3,0,0.4,0c0.1,0,0.1,0,0.2,0v0C65.8,81.6,83.4,63.4,83,41.4C82.7,19.5,64.9,2,43,2z M5.7,42
						c0-20.4,16.5-37.1,36.9-37.3c9.9,0.1,17.9,8.3,17.8,18.3c-0.1,9.6-7.8,17.4-17.4,17.7C31.6,41.1,22.6,50.6,23,62
						c0.2,5.9,2.9,11.3,7.4,15.1C15.6,71.8,5.7,57.7,5.7,42z M43.4,79.3c-9.9-0.1-17.9-8.3-17.8-18.2c0.1-9.6,7.8-17.5,17.4-17.8
						l0.1,0C54.6,42.9,63.4,33.2,63,21.8c-0.2-5.8-2.9-11.2-7.4-15c19.4,7,29.5,28.4,22.5,47.8C72.9,69.3,59,79.1,43.4,79.3z"/>
				</g>
				<circle id="Ellipse_439" class="st1" cx="891" cy="1075" r="3.4"/>
			</g>
		</g>
	</g>
</g>
</svg>
